# collect_hub works on local simple forecasting hub

    Code
      collect_hub(hub_con)
    Output
      # A tibble: 599 x 9
         model_id     origin_date target        horizon location age_group output_type
       * <chr>        <date>      <chr>           <int> <chr>    <chr>     <chr>      
       1 hub-baseline 2022-10-01  wk inc flu h~       1 US       <NA>      mean       
       2 hub-baseline 2022-10-01  wk inc flu h~       1 US       <NA>      quantile   
       3 hub-baseline 2022-10-01  wk inc flu h~       1 US       <NA>      quantile   
       4 hub-baseline 2022-10-01  wk inc flu h~       1 US       <NA>      quantile   
       5 hub-baseline 2022-10-01  wk inc flu h~       1 US       <NA>      quantile   
       6 hub-baseline 2022-10-01  wk inc flu h~       1 US       <NA>      quantile   
       7 hub-baseline 2022-10-01  wk inc flu h~       1 US       <NA>      quantile   
       8 hub-baseline 2022-10-01  wk inc flu h~       1 US       <NA>      quantile   
       9 hub-baseline 2022-10-01  wk inc flu h~       1 US       <NA>      quantile   
      10 hub-baseline 2022-10-01  wk inc flu h~       1 US       <NA>      quantile   
      # i 589 more rows
      # i 2 more variables: output_type_id <dbl>, value <int>
…
