…
# expand_model_out_val_grid output controls with samples work correctly

    Code
      expand_model_out_val_grid(config_tasks, round_id = "2022-12-26")
    Output
      # A tibble: 42 x 6
         forecast_date target              horizon location output_type output_type_id
         <date>        <chr>                 <int> <chr>    <chr>       <chr>         
       1 2022-12-26    wk ahead inc flu h~       2 US       sample      <NA>          
       2 2022-12-26    wk ahead inc flu h~       1 US       sample      <NA>          
       3 2022-12-26    wk ahead inc flu h~       2 01       sample      <NA>          
       4 2022-12-26    wk ahead inc flu h~       1 01       sample      <NA>          
       5 2022-12-26    wk ahead inc flu h~       2 02       sample      <NA>          
       6 2022-12-26    wk ahead inc flu h~       1 02       sample      <NA>          
       7 2022-12-26    wk ahead inc flu h~       2 US       mean        <NA>          
       8 2022-12-26    wk ahead inc flu h~       1 US       mean        <NA>          
       9 2022-12-26    wk ahead inc flu h~       2 01       mean        <NA>          
      10 2022-12-26    wk ahead inc flu h~       1 01       mean        <NA>          
      # i 32 more rows
…
      [[2]]
      # A tibble: 30 x 6
         forecast_date target              horizon location output_type output_type_id
         <date>        <chr>                 <int> <chr>    <chr>       <chr>         
       1 2022-12-26    wk flu hosp rate c~       2 US       pmf         large_decrease
       2 2022-12-26    wk flu hosp rate c~       1 US       pmf         large_decrease
       3 2022-12-26    wk flu hosp rate c~       2 01       pmf         large_decrease
       4 2022-12-26    wk flu hosp rate c~       1 01       pmf         large_decrease
       5 2022-12-26    wk flu hosp rate c~       2 02       pmf         large_decrease
       6 2022-12-26    wk flu hosp rate c~       1 02       pmf         large_decrease
       7 2022-12-26    wk flu hosp rate c~       2 US       pmf         decrease      
       8 2022-12-26    wk flu hosp rate c~       1 US       pmf         decrease      
       9 2022-12-26    wk flu hosp rate c~       2 01       pmf         decrease      
      10 2022-12-26    wk flu hosp rate c~       1 01       pmf         decrease      
      # i 20 more rows
…
