Accessing Target Data • hubData
…
This shows the Arrow dataset structure, including the schema (column
names and data types) and information about the underlying file(s). The
connection is lazy - no data is loaded into memory until you explicitly
collect it.

You can query and collect data from the connection using
dplyr verbs:

# Collect all time-series data
ts_con |>
  collect()
#> # A tibble: 66 × 4
#>    target_end_date target           location observation
#>    <date>          <chr>            <chr>          <dbl>
#>  1 2022-10-22      wk flu hosp rate 02             0.422
#>  2 2022-10-22      wk flu hosp rate 01             2.78 
#>  3 2022-10-22      wk flu hosp rate US             0.716
#>  4 2022-10-29      wk flu hosp rate 02             1.97 
#>  5 2022-10-29      wk flu hosp rate 01             5.17 
#>  6 2022-10-29      wk flu hosp rate US             1.31 
#>  7 2022-11-05      wk flu hosp rate 02             1.41 
#>  8 2022-11-05      wk flu hosp rate 01             7.11 
#>  9 2022-11-05      wk flu hosp rate US             1.98 
#> 10 2022-11-12      wk flu hosp rate 02             2.81 
#> # ℹ 56 more rows

Filtering time-series data

You can filter before collecting to work with subsets of the
data:

# Filter by location
ts_con |>
  filter(location == "US") |>
  collect()
#> # A tibble: 22 × 4
#>    target_end_date target           location observation
#>    <date>          <chr>            <chr>          <dbl>
#>  1 2022-10-22      wk flu hosp rate US             0.716
#>  2 2022-10-29      wk flu hosp rate US             1.31 
#>  3 2022-11-05      wk flu hosp rate US             1.98 
#>  4 2022-11-12      wk flu hosp rate US             2.66 
#>  5 2022-11-19      wk flu hosp rate US             3.44 
#>  6 2022-11-26      wk flu hosp rate US             5.97 
#>  7 2022-12-03      wk flu hosp rate US             7.93 
#>  8 2022-12-10      wk flu hosp rate US             7.18 
#>  9 2022-12-17      wk flu hosp rate US             6.45 
#> 10 2022-12-24      wk flu hosp rate US             5.81 
#> # ℹ 12 more rows

# Filter by date range
ts_con |>
  filter(target_end_date >= "2022-10-01") |>
  collect()
#> # A tibble: 66 × 4
#>    target_end_date target           location observation
#>    <date>          <chr>            <chr>          <dbl>
#>  1 2022-10-22      wk flu hosp rate 02             0.422
#>  2 2022-10-22      wk flu hosp rate 01             2.78 
#>  3 2022-10-22      wk flu hosp rate US             0.716
#>  4 2022-10-29      wk flu hosp rate 02             1.97 
#>  5 2022-10-29      wk flu hosp rate 01             5.17 
#>  6 2022-10-29      wk flu hosp rate US             1.31 
#>  7 2022-11-05      wk flu hosp rate 02             1.41 
#>  8 2022-11-05      wk flu hosp rate 01             7.11 
#>  9 2022-11-05      wk flu hosp rate US             1.98 
#> 10 2022-11-12      wk flu hosp rate 02             2.81 
#> # ℹ 56 more rows

# Combine multiple filters
ts_con |>
  filter(
    location %in% c("US", "01"),
    target_end_date >= "2022-10-01"
  ) |>
  collect()
#> # A tibble: 44 × 4
#>    target_end_date target           location observation
#>    <date>          <chr>            <chr>          <dbl>
#>  1 2022-10-22      wk flu hosp rate 01             2.78 
#>  2 2022-10-22      wk flu hosp rate US             0.716
#>  3 2022-10-29      wk flu hosp rate 01             5.17 
#>  4 2022-10-29      wk flu hosp rate US             1.31 
#>  5 2022-11-05      wk flu hosp rate 01             7.11 
#>  6 2022-11-05      wk flu hosp rate US             1.98 
#>  7 2022-11-12      wk flu hosp rate 01             5.98 
#>  8 2022-11-12      wk flu hosp rate US             2.66 
#>  9 2022-11-19      wk flu hosp rate 01             4.46 
#> 10 2022-11-19      wk flu hosp rate US             3.44 
#> # ℹ 34 more rows
…
Like the time-series connection, this displays the Arrow dataset
structure with the schema showing columns formatted like model outputs.
Notice the presence of columns like output_type,
output_type_id, and oracle_value.

You can query and collect data from this connection:

# Collect all oracle-output data
oo_con |>
  collect()
#> # A tibble: 627 × 6
#>    target_end_date target       location output_type output_type_id oracle_value
#>    <date>          <chr>        <chr>    <chr>       <chr>                 <dbl>
#>  1 2022-10-22      wk flu hosp… US       cdf         1                         1
#>  2 2022-10-22      wk flu hosp… US       cdf         2                         1
#>  3 2022-10-22      wk flu hosp… US       cdf         3                         1
#>  4 2022-10-22      wk flu hosp… US       cdf         4                         1
#>  5 2022-10-22      wk flu hosp… US       cdf         5                         1
#>  6 2022-10-22      wk flu hosp… US       cdf         6                         1
#>  7 2022-10-22      wk flu hosp… US       cdf         7                         1
#>  8 2022-10-22      wk flu hosp… US       cdf         8                         1
#>  9 2022-10-22      wk flu hosp… US       cdf         9                         1
#> 10 2022-10-22      wk flu hosp… US       cdf         10                        1
#> # ℹ 617 more rows

Filtering oracle-output data

Oracle-output data has the same structure as model output, making it
easy to filter by output type:

# Get quantile forecasts only
oo_con |>
  filter(output_type == "quantile") |>
  collect()
#> # A tibble: 33 × 6
#>    target_end_date target       location output_type output_type_id oracle_value
#>    <date>          <chr>        <chr>    <chr>       <chr>                 <dbl>
#>  1 2022-10-22      wk inc flu … US       quantile    NA                     2380
#>  2 2022-10-22      wk inc flu … 01       quantile    NA                      141
#>  3 2022-10-22      wk inc flu … 02       quantile    NA                        3
#>  4 2022-10-29      wk inc flu … US       quantile    NA                     4353
#>  5 2022-10-29      wk inc flu … 01       quantile    NA                      262
#>  6 2022-10-29      wk inc flu … 02       quantile    NA                       14
#>  7 2022-11-05      wk inc flu … US       quantile    NA                     6571
#>  8 2022-11-05      wk inc flu … 01       quantile    NA                      360
#>  9 2022-11-05      wk inc flu … 02       quantile    NA                       10
#> 10 2022-11-12      wk inc flu … US       quantile    NA                     8848
#> # ℹ 23 more rows
…
# Connect to model outputs
hub_con <- connect_hub(hub_path)

# Collect model outputs for a specific location and output type
model_data <- hub_con |>
  filter(
    output_type == "quantile",
    location == "US"
  ) |>
  collect_hub()

model_data
#> # A tibble: 132 × 9
#>    model_id   location reference_date horizon target_end_date target output_type
#>  * <chr>      <chr>    <date>           <int> <date>          <chr>  <chr>      
#>  1 Flusight-… US       2022-10-22           1 2022-10-29      wk in… quantile   
#>  2 Flusight-… US       2022-10-22           1 2022-10-29      wk in… quantile   
#>  3 Flusight-… US       2022-10-22           1 2022-10-29      wk in… quantile   
#>  4 Flusight-… US       2022-10-22           1 2022-10-29      wk in… quantile   
#>  5 Flusight-… US       2022-10-22           1 2022-10-29      wk in… quantile   
#>  6 Flusight-… US       2022-10-22           1 2022-10-29      wk in… quantile   
#>  7 Flusight-… US       2022-10-22           1 2022-10-29      wk in… quantile   
#>  8 Flusight-… US       2022-10-22           1 2022-10-29      wk in… quantile   
#>  9 Flusight-… US       2022-10-22           1 2022-10-29      wk in… quantile   
#> 10 Flusight-… US       2022-10-22           1 2022-10-29      wk in… quantile   
#> # ℹ 122 more rows
#> # ℹ 2 more variables: output_type_id <chr>, value <dbl>
…
# Remove unnecessary columns that would cause merge conflicts
target_data <- target_data |>
  select(-c(output_type, output_type_id))

# Join on common task ID columns
join_cols <- c("location", "target_end_date", "target")

comparison <- model_data |>
  inner_join(
    target_data,
    by = join_cols
  )

comparison
#> # A tibble: 132 × 10
#>    model_id   location reference_date horizon target_end_date target output_type
#>    <chr>      <chr>    <date>           <int> <date>          <chr>  <chr>      
#>  1 Flusight-… US       2022-10-22           1 2022-10-29      wk in… quantile   
#>  2 Flusight-… US       2022-10-22           1 2022-10-29      wk in… quantile   
#>  3 Flusight-… US       2022-10-22           1 2022-10-29      wk in… quantile   
#>  4 Flusight-… US       2022-10-22           1 2022-10-29      wk in… quantile   
#>  5 Flusight-… US       2022-10-22           1 2022-10-29      wk in… quantile   
#>  6 Flusight-… US       2022-10-22           1 2022-10-29      wk in… quantile   
#>  7 Flusight-… US       2022-10-22           1 2022-10-29      wk in… quantile   
#>  8 Flusight-… US       2022-10-22           1 2022-10-29      wk in… quantile   
#>  9 Flusight-… US       2022-10-22           1 2022-10-29      wk in… quantile   
#> 10 Flusight-… US       2022-10-22           1 2022-10-29      wk in… quantile   
#> # ℹ 122 more rows
#> # ℹ 3 more variables: output_type_id <chr>, value <dbl>, oracle_value <dbl>
Now we have successfully aligned predicted values
(value) with target observations
(oracle_value) for each combination of task IDs.

Special case: Hubs with horizon-based forecasts

Some hubs collect forecasts using only a reference date (or origin
date) and a horizon column, rather than explicitly storing the target
end date. In these cases, the target end date is often calculated as
origin_date + (horizon * 7L) (assuming weekly
forecasts).

# Model data without target_end_date
model_data_horizon
#> # A tibble: 132 × 8
#>    model_id    location reference_date horizon target output_type output_type_id
#>    <chr>       <chr>    <date>           <int> <chr>  <chr>       <chr>         
#>  1 Flusight-b… US       2022-10-22           1 wk in… quantile    0.025         
#>  2 Flusight-b… US       2022-10-22           1 wk in… quantile    0.1           
#>  3 Flusight-b… US       2022-10-22           1 wk in… quantile    0.2           
#>  4 Flusight-b… US       2022-10-22           1 wk in… quantile    0.3           
#>  5 Flusight-b… US       2022-10-22           1 wk in… quantile    0.4           
#>  6 Flusight-b… US       2022-10-22           1 wk in… quantile    0.5           
#>  7 Flusight-b… US       2022-10-22           1 wk in… quantile    0.6           
#>  8 Flusight-b… US       2022-10-22           1 wk in… quantile    0.7           
#>  9 Flusight-b… US       2022-10-22           1 wk in… quantile    0.8           
#> 10 Flusight-b… US       2022-10-22           1 wk in… quantile    0.9           
#> # ℹ 122 more rows
#> # ℹ 1 more variable: value <dbl>

When working with such hubs, you’ll need to calculate the
target_end_date in the model output data before joining
with target data:

# Calculate target_end_date from origin_date and horizon
model_data_horizon <- model_data_horizon |>
  mutate(
    target_end_date = reference_date + (horizon * 7L)
  )

model_data_horizon
#> # A tibble: 132 × 9
#>    model_id    location reference_date horizon target output_type output_type_id
#>    <chr>       <chr>    <date>           <int> <chr>  <chr>       <chr>         
#>  1 Flusight-b… US       2022-10-22           1 wk in… quantile    0.025         
#>  2 Flusight-b… US       2022-10-22           1 wk in… quantile    0.1           
#>  3 Flusight-b… US       2022-10-22           1 wk in… quantile    0.2           
#>  4 Flusight-b… US       2022-10-22           1 wk in… quantile    0.3           
#>  5 Flusight-b… US       2022-10-22           1 wk in… quantile    0.4           
#>  6 Flusight-b… US       2022-10-22           1 wk in… quantile    0.5           
#>  7 Flusight-b… US       2022-10-22           1 wk in… quantile    0.6           
#>  8 Flusight-b… US       2022-10-22           1 wk in… quantile    0.7           
#>  9 Flusight-b… US       2022-10-22           1 wk in… quantile    0.8           
#> 10 Flusight-b… US       2022-10-22           1 wk in… quantile    0.9           
#> # ℹ 122 more rows
#> # ℹ 2 more variables: value <dbl>, target_end_date <date>

Now we can join with target data as before:

join_cols <- c("location", "target_end_date", "target")

comparison_horizon <- model_data_horizon |>
  inner_join(
    target_data,
    by = join_cols
  )

comparison_horizon
#> # A tibble: 132 × 10
#>    model_id    location reference_date horizon target output_type output_type_id
#>    <chr>       <chr>    <date>           <int> <chr>  <chr>       <chr>         
#>  1 Flusight-b… US       2022-10-22           1 wk in… quantile    0.025         
#>  2 Flusight-b… US       2022-10-22           1 wk in… quantile    0.1           
#>  3 Flusight-b… US       2022-10-22           1 wk in… quantile    0.2           
#>  4 Flusight-b… US       2022-10-22           1 wk in… quantile    0.3           
#>  5 Flusight-b… US       2022-10-22           1 wk in… quantile    0.4           
#>  6 Flusight-b… US       2022-10-22           1 wk in… quantile    0.5           
#>  7 Flusight-b… US       2022-10-22           1 wk in… quantile    0.6           
#>  8 Flusight-b… US       2022-10-22           1 wk in… quantile    0.7           
#>  9 Flusight-b… US       2022-10-22           1 wk in… quantile    0.8           
#> 10 Flusight-b… US       2022-10-22           1 wk in… quantile    0.9           
#> # ℹ 122 more rows
#> # ℹ 3 more variables: value <dbl>, target_end_date <date>, oracle_value <dbl>
…
# Access time-series target data from cloud
ts_cloud <- connect_target_timeseries(s3_hub_path)
ts_cloud
#> target_timeseries with 1 csv file
#> 4 columns
#> target_end_date: date32[day]
#> target: string
#> location: string
#> observation: double

# Collect a sample of the data
ts_cloud |>
  filter(location == "US") |>
  collect()
#> # A tibble: 402 × 4
#>    target_end_date target          location observation
#>    <date>          <chr>           <chr>          <dbl>
#>  1 2020-01-11      wk inc flu hosp US                 1
#>  2 2020-01-18      wk inc flu hosp US                 0
#>  3 2020-01-25      wk inc flu hosp US                 0
#>  4 2020-02-01      wk inc flu hosp US                 0
#>  5 2020-02-08      wk inc flu hosp US                 0
#>  6 2020-02-15      wk inc flu hosp US                 0
#>  7 2020-02-22      wk inc flu hosp US                 0
#>  8 2020-02-29      wk inc flu hosp US                 0
#>  9 2020-03-07      wk inc flu hosp US                 0
#> 10 2020-03-14      wk inc flu hosp US                 0
#> # ℹ 392 more rows
…
# Collect a sample of oracle-output data
oo_cloud |>
  filter(location == "US") |>
  collect()
#> # A tibble: 3,780 × 6
#>    location target_end_date target       output_type output_type_id oracle_value
#>    <chr>    <date>          <chr>        <chr>       <chr>                 <dbl>
#>  1 US       2022-10-22      wk inc flu … quantile    NA                     2380
#>  2 US       2022-10-29      wk inc flu … quantile    NA                     4353
#>  3 US       2022-11-05      wk inc flu … quantile    NA                     6571
#>  4 US       2022-11-12      wk inc flu … quantile    NA                     8848
#>  5 US       2022-11-19      wk inc flu … quantile    NA                    11427
#>  6 US       2022-11-26      wk inc flu … quantile    NA                    19846
#>  7 US       2022-12-03      wk inc flu … quantile    NA                    26333
#>  8 US       2022-12-10      wk inc flu … quantile    NA                    23851
#>  9 US       2022-12-17      wk inc flu … quantile    NA                    21435
#> 10 US       2022-12-24      wk inc flu … quantile    NA                    19286
#> # ℹ 3,770 more rows
…
# Less efficient: collect everything, then filter
ts_cloud |>
  collect() |>
  filter(location == "US")

Select specific columns: If you only need certain
columns, use select() before collecting:

ts_cloud |>
  select(location, target_end_date, observation) |>
  filter(location == "US") |>
  collect()
#> # A tibble: 402 × 3
#>    location target_end_date observation
#>    <chr>    <date>                <dbl>
#>  1 US       2020-01-11                1
#>  2 US       2020-01-18                0
#>  3 US       2020-01-25                0
#>  4 US       2020-02-01                0
#>  5 US       2020-02-08                0
#>  6 US       2020-02-15                0
#>  7 US       2020-02-22                0
#>  8 US       2020-02-29                0
#>  9 US       2020-03-07                0
#> 10 US       2020-03-14                0
#> # ℹ 392 more rows
…
