Accessing data from a hub • hubData
…
Accessing data

To access data from a hub connection you can use dplyr verbs and
construct querying pipelines.

To perform the queries, you can use dplyr’s
collect() function:

hub_con %>%
  dplyr::filter(output_type == "quantile", location == "US") %>%
  dplyr::collect()
#> # A tibble: 276 × 8
#>    forecast_date horizon target        location output_type output_type_id value
#>    <date>          <int> <chr>         <chr>    <chr>       <chr>          <dbl>
#>  1 2023-04-24          1 wk ahead inc… US       quantile    0.01               0
#>  2 2023-04-24          1 wk ahead inc… US       quantile    0.025              0
#>  3 2023-04-24          1 wk ahead inc… US       quantile    0.05               0
#>  4 2023-04-24          1 wk ahead inc… US       quantile    0.1              281
#>  5 2023-04-24          1 wk ahead inc… US       quantile    0.15             600
#>  6 2023-04-24          1 wk ahead inc… US       quantile    0.2              717
#>  7 2023-04-24          1 wk ahead inc… US       quantile    0.25             817
#>  8 2023-04-24          1 wk ahead inc… US       quantile    0.3              877
#>  9 2023-04-24          1 wk ahead inc… US       quantile    0.35             913
#> 10 2023-04-24          1 wk ahead inc… US       quantile    0.4              965
#> # ℹ 266 more rows
#> # ℹ 1 more variable: model_id <chr>
…
Use collect_hub() to return
model_out_tbls

Conveniently, you can use the hubData wrapper
collect_hub() which converts the output of
dplyr::collect() to a model_out_tbl class
object where possible:

tbl <- hub_con %>%
  dplyr::filter(output_type == "quantile", location == "US") %>%
  hubData::collect_hub()

tbl
#> # A tibble: 276 × 8
#>    model_id     forecast_date horizon target location output_type output_type_id
#>  * <chr>        <date>          <int> <chr>  <chr>    <chr>       <chr>         
#>  1 hub-baseline 2023-04-24          1 wk ah… US       quantile    0.01          
#>  2 hub-baseline 2023-04-24          1 wk ah… US       quantile    0.025         
#>  3 hub-baseline 2023-04-24          1 wk ah… US       quantile    0.05          
#>  4 hub-baseline 2023-04-24          1 wk ah… US       quantile    0.1           
#>  5 hub-baseline 2023-04-24          1 wk ah… US       quantile    0.15          
#>  6 hub-baseline 2023-04-24          1 wk ah… US       quantile    0.2           
#>  7 hub-baseline 2023-04-24          1 wk ah… US       quantile    0.25          
#>  8 hub-baseline 2023-04-24          1 wk ah… US       quantile    0.3           
#>  9 hub-baseline 2023-04-24          1 wk ah… US       quantile    0.35          
#> 10 hub-baseline 2023-04-24          1 wk ah… US       quantile    0.4           
#> # ℹ 266 more rows
#> # ℹ 1 more variable: value <dbl>

class(tbl)
#> [1] "model_out_tbl" "tbl_df"        "tbl"           "data.frame"

Accessing data from cloud hubs

Accessing data from hubs in the cloud is exactly the same:

hub_con_cloud %>%
  dplyr::filter(output_type == "quantile", location == "US") %>%
  hubData::collect_hub()
#> # A tibble: 230 × 9
#>    model_id        origin_date target     horizon location age_group output_type
#>  * <chr>           <date>      <chr>        <int> <chr>    <chr>     <chr>      
#>  1 team1-goodmodel 2022-10-08  wk inc fl…       1 US       NA        quantile   
#>  2 team1-goodmodel 2022-10-08  wk inc fl…       1 US       NA        quantile   
#>  3 team1-goodmodel 2022-10-08  wk inc fl…       1 US       NA        quantile   
#>  4 team1-goodmodel 2022-10-08  wk inc fl…       1 US       NA        quantile   
#>  5 team1-goodmodel 2022-10-08  wk inc fl…       1 US       NA        quantile   
#>  6 team1-goodmodel 2022-10-08  wk inc fl…       1 US       NA        quantile   
#>  7 team1-goodmodel 2022-10-08  wk inc fl…       1 US       NA        quantile   
#>  8 team1-goodmodel 2022-10-08  wk inc fl…       1 US       NA        quantile   
#>  9 team1-goodmodel 2022-10-08  wk inc fl…       1 US       NA        quantile   
#> 10 team1-goodmodel 2022-10-08  wk inc fl…       1 US       NA        quantile   
#> # ℹ 220 more rows
#> # ℹ 2 more variables: output_type_id <dbl>, value <int>
…
This doesn’t work however as arrow does not have an
equivalent max method for Date[32] data
types.

In such a situation, you could collect after applying the first
filtering level which does work for arrow and then finish the filtering
on the in-memory data returned by collect.

hub_con %>%
  dplyr::filter(output_type == "quantile", location == "US") %>%
  hubData::collect_hub() %>%
  dplyr::filter(forecast_date == max(forecast_date))
#> # A tibble: 92 × 8
#>    model_id     forecast_date horizon target location output_type output_type_id
#>    <chr>        <date>          <int> <chr>  <chr>    <chr>       <chr>         
#>  1 hub-baseline 2023-05-08          1 wk ah… US       quantile    0.01          
#>  2 hub-baseline 2023-05-08          1 wk ah… US       quantile    0.025         
#>  3 hub-baseline 2023-05-08          1 wk ah… US       quantile    0.05          
#>  4 hub-baseline 2023-05-08          1 wk ah… US       quantile    0.1           
#>  5 hub-baseline 2023-05-08          1 wk ah… US       quantile    0.15          
#>  6 hub-baseline 2023-05-08          1 wk ah… US       quantile    0.2           
#>  7 hub-baseline 2023-05-08          1 wk ah… US       quantile    0.25          
#>  8 hub-baseline 2023-05-08          1 wk ah… US       quantile    0.3           
#>  9 hub-baseline 2023-05-08          1 wk ah… US       quantile    0.35          
#> 10 hub-baseline 2023-05-08          1 wk ah… US       quantile    0.4           
#> # ℹ 82 more rows
#> # ℹ 1 more variable: value <dbl>
…
use the last forecast date in the filtering query.

last_forecast <- hub_con %>%
  dplyr::filter(output_type == "quantile", location == "US") %>%
  dplyr::pull(forecast_date, as_vector = TRUE) %>%
  max(na.rm = TRUE)

hub_con %>%
  dplyr::filter(
    output_type == "quantile", location == "US",
    forecast_date == last_forecast
  ) %>%
  hubData::collect_hub()
#> # A tibble: 92 × 8
#>    model_id     forecast_date horizon target location output_type output_type_id
#>  * <chr>        <date>          <int> <chr>  <chr>    <chr>       <chr>         
#>  1 hub-baseline 2023-05-08          1 wk ah… US       quantile    0.01          
#>  2 hub-baseline 2023-05-08          1 wk ah… US       quantile    0.025         
#>  3 hub-baseline 2023-05-08          1 wk ah… US       quantile    0.05          
#>  4 hub-baseline 2023-05-08          1 wk ah… US       quantile    0.1           
#>  5 hub-baseline 2023-05-08          1 wk ah… US       quantile    0.15          
#>  6 hub-baseline 2023-05-08          1 wk ah… US       quantile    0.2           
#>  7 hub-baseline 2023-05-08          1 wk ah… US       quantile    0.25          
#>  8 hub-baseline 2023-05-08          1 wk ah… US       quantile    0.3           
#>  9 hub-baseline 2023-05-08          1 wk ah… US       quantile    0.35          
#> 10 hub-baseline 2023-05-08          1 wk ah… US       quantile    0.4           
#> # ℹ 82 more rows
#> # ℹ 1 more variable: value <dbl>
…
For more details see DuckDB quacks
Arrow: A zero-copy data integration between Apache Arrow and
DuckDB.

hub_con %>%
  arrow::to_duckdb() %>%
  dplyr::filter(
    output_type == "quantile", location == "US",
    forecast_date == max(forecast_date, na.rm = TRUE)
  ) %>%
  hubData::collect_hub()
#> # A tibble: 92 × 8
#>    model_id     forecast_date horizon target location output_type output_type_id
#>  * <chr>        <date>          <int> <chr>  <chr>    <chr>       <chr>         
#>  1 hub-baseline 2023-05-08          1 wk ah… US       quantile    0.01          
#>  2 hub-baseline 2023-05-08          1 wk ah… US       quantile    0.025         
#>  3 hub-baseline 2023-05-08          1 wk ah… US       quantile    0.05          
#>  4 hub-baseline 2023-05-08          1 wk ah… US       quantile    0.1           
#>  5 hub-baseline 2023-05-08          1 wk ah… US       quantile    0.15          
#>  6 hub-baseline 2023-05-08          1 wk ah… US       quantile    0.2           
#>  7 hub-baseline 2023-05-08          1 wk ah… US       quantile    0.25          
#>  8 hub-baseline 2023-05-08          1 wk ah… US       quantile    0.3           
#>  9 hub-baseline 2023-05-08          1 wk ah… US       quantile    0.35          
#> 10 hub-baseline 2023-05-08          1 wk ah… US       quantile    0.4           
#> # ℹ 82 more rows
#> # ℹ 1 more variable: value <dbl>
…
Accessing data follows the same procedure described for fully
configured hubs:

mod_out_con %>%
  dplyr::filter(output_type == "quantile", location == "US") %>%
  hubData::collect_hub()
#> # A tibble: 138 × 8
#>    model_id origin_date target horizon location output_type output_type_id value
#>  * <chr>    <date>      <chr>    <int> <chr>    <chr>                <dbl> <int>
#>  1 hub-bas… 2022-10-01  wk in…       1 US       quantile             0.01    135
#>  2 hub-bas… 2022-10-01  wk in…       1 US       quantile             0.025   137
#>  3 hub-bas… 2022-10-01  wk in…       1 US       quantile             0.05    139
#>  4 hub-bas… 2022-10-01  wk in…       1 US       quantile             0.1     140
#>  5 hub-bas… 2022-10-01  wk in…       1 US       quantile             0.15    141
#>  6 hub-bas… 2022-10-01  wk in…       1 US       quantile             0.2     141
#>  7 hub-bas… 2022-10-01  wk in…       1 US       quantile             0.25    142
#>  8 hub-bas… 2022-10-01  wk in…       1 US       quantile             0.3     143
#>  9 hub-bas… 2022-10-01  wk in…       1 US       quantile             0.35    144
#> 10 hub-bas… 2022-10-01  wk in…       1 US       quantile             0.4     145
#> # ℹ 128 more rows
…
