Collect Hub model output data — collect_hub • hubData
…
...
Further argument passed on to as_model_out_tbl().

    Value

    A model_out_tbl, unless conversion to model_out_tbl fails in which case a tibble is returned.

    Examples

hub_path <- system.file("testhubs/simple", package = "hubUtils")
hub_con <- connect_hub(hub_path)
# Collect all data in a hub
hub_con %>% collect_hub()
#> # A tibble: 599 × 9
#>    model_id     origin_date target        horizon location age_group output_type
#>  * <chr>        <date>      <chr>           <int> <chr>    <chr>     <chr>      
#>  1 hub-baseline 2022-10-01  wk inc flu h…       1 US       NA        mean       
#>  2 hub-baseline 2022-10-01  wk inc flu h…       1 US       NA        quantile   
#>  3 hub-baseline 2022-10-01  wk inc flu h…       1 US       NA        quantile   
#>  4 hub-baseline 2022-10-01  wk inc flu h…       1 US       NA        quantile   
#>  5 hub-baseline 2022-10-01  wk inc flu h…       1 US       NA        quantile   
#>  6 hub-baseline 2022-10-01  wk inc flu h…       1 US       NA        quantile   
#>  7 hub-baseline 2022-10-01  wk inc flu h…       1 US       NA        quantile   
#>  8 hub-baseline 2022-10-01  wk inc flu h…       1 US       NA        quantile   
#>  9 hub-baseline 2022-10-01  wk inc flu h…       1 US       NA        quantile   
#> 10 hub-baseline 2022-10-01  wk inc flu h…       1 US       NA        quantile   
#> # ℹ 589 more rows
#> # ℹ 2 more variables: output_type_id <dbl>, value <int>
…
