Open connection to time-series target data — connect_target_timeseries • hubData
…
# Column Ordering: CSV vs Parquet in v6+ hubs
# For v6+ hubs with target-data.json, ordering differs by file format

# Example 1: CSV format (single file) - preserves original file ordering
hub_path_csv <- system.file("testhubs/v6/target_file", package = "hubUtils")
ts_con_csv <- connect_target_timeseries(hub_path_csv)

# CSV columns are in their original file order
names(ts_con_csv)
#> [1] "target_end_date" "target"          "location"        "observation"    
# Note: columns appear in the order they are in the CSV file

# Collect and filter as usual
ts_con_csv |> dplyr::collect()
#> # A tibble: 66 × 4
#>    target_end_date target          location observation
#>    <date>          <chr>           <chr>          <dbl>
#>  1 2022-10-22      wk inc flu hosp 02                 3
#>  2 2022-10-22      wk inc flu hosp 01               141
#>  3 2022-10-22      wk inc flu hosp US              2380
#>  4 2022-10-29      wk inc flu hosp 02                14
#>  5 2022-10-29      wk inc flu hosp 01               262
#>  6 2022-10-29      wk inc flu hosp US              4353
#>  7 2022-11-05      wk inc flu hosp 02                10
#>  8 2022-11-05      wk inc flu hosp 01               360
#>  9 2022-11-05      wk inc flu hosp US              6571
#> 10 2022-11-12      wk inc flu hosp 02                20
#> # ℹ 56 more rows
ts_con_csv |>
  dplyr::filter(location == "US") |>
  dplyr::collect()
#> # A tibble: 22 × 4
#>    target_end_date target          location observation
#>    <date>          <chr>           <chr>          <dbl>
#>  1 2022-10-22      wk inc flu hosp US              2380
#>  2 2022-10-29      wk inc flu hosp US              4353
#>  3 2022-11-05      wk inc flu hosp US              6571
#>  4 2022-11-12      wk inc flu hosp US              8848
#>  5 2022-11-19      wk inc flu hosp US             11427
#>  6 2022-11-26      wk inc flu hosp US             19846
#>  7 2022-12-03      wk inc flu hosp US             26333
#>  8 2022-12-10      wk inc flu hosp US             23851
#>  9 2022-12-17      wk inc flu hosp US             21435
#> 10 2022-12-24      wk inc flu hosp US             19286
#> # ℹ 12 more rows

# Example 2: Parquet format (directory) - reordered to hubverse convention
hub_path_parquet <- system.file("testhubs/v6/target_dir", package = "hubUtils")
ts_con_parquet <- connect_target_timeseries(hub_path_parquet)

# Parquet columns follow hubverse convention
names(ts_con_parquet)
#> [1] "target_end_date" "target"          "location"        "observation"    

# Reordering is safe for Parquet because it matches columns by name
# rather than position during collection
ts_con_parquet |> dplyr::collect()
#> # A tibble: 66 × 4
#>    target_end_date target           location observation
#>    <date>          <chr>            <chr>          <dbl>
#>  1 2022-10-22      wk flu hosp rate 02             0.422
#>  2 2022-10-22      wk flu hosp rate 01             2.78 
#>  3 2022-10-22      wk flu hosp rate US             0.716
#>  4 2022-10-29      wk flu hosp rate 02             1.97 
#>  5 2022-10-29      wk flu hosp rate 01             5.17 
#>  6 2022-10-29      wk flu hosp rate US             1.31 
#>  7 2022-11-05      wk flu hosp rate 02             1.41 
#>  8 2022-11-05      wk flu hosp rate 01             7.11 
#>  9 2022-11-05      wk flu hosp rate US             1.98 
#> 10 2022-11-12      wk flu hosp rate 02             2.81 
#> # ℹ 56 more rows
…
