…
# Example 1: CSV format (single file) - preserves original file ordering
hub_path_csv <- system.file("testhubs/v6/target_file", package = "hubUtils")
oo_con_csv <- connect_target_oracle_output(hub_path_csv)

# CSV columns are in their original file order
names(oo_con_csv)
#> [1] "location"        "target_end_date" "target"          "output_type"    
#> [5] "output_type_id"  "oracle_value"   

# Collect and filter as usual
oo_con_csv |> dplyr::collect()
#> # A tibble: 627 × 6
#>    location target_end_date target       output_type output_type_id oracle_value
#>    <chr>    <date>          <chr>        <chr>       <chr>                 <dbl>
#>  1 US       2022-10-22      wk flu hosp… cdf         1                         1
#>  2 US       2022-10-22      wk flu hosp… cdf         2                         1
#>  3 US       2022-10-22      wk flu hosp… cdf         3                         1
#>  4 US       2022-10-22      wk flu hosp… cdf         4                         1
#>  5 US       2022-10-22      wk flu hosp… cdf         5                         1
#>  6 US       2022-10-22      wk flu hosp… cdf         6                         1
#>  7 US       2022-10-22      wk flu hosp… cdf         7                         1
#>  8 US       2022-10-22      wk flu hosp… cdf         8                         1
#>  9 US       2022-10-22      wk flu hosp… cdf         9                         1
#> 10 US       2022-10-22      wk flu hosp… cdf         10                        1
#> # ℹ 617 more rows
oo_con_csv |>
  dplyr::filter(location == "US") |>
  dplyr::collect()
#> # A tibble: 209 × 6
#>    location target_end_date target       output_type output_type_id oracle_value
#>    <chr>    <date>          <chr>        <chr>       <chr>                 <dbl>
#>  1 US       2022-10-22      wk flu hosp… cdf         1                         1
#>  2 US       2022-10-22      wk flu hosp… cdf         2                         1
#>  3 US       2022-10-22      wk flu hosp… cdf         3                         1
#>  4 US       2022-10-22      wk flu hosp… cdf         4                         1
#>  5 US       2022-10-22      wk flu hosp… cdf         5                         1
#>  6 US       2022-10-22      wk flu hosp… cdf         6                         1
#>  7 US       2022-10-22      wk flu hosp… cdf         7                         1
#>  8 US       2022-10-22      wk flu hosp… cdf         8                         1
#>  9 US       2022-10-22      wk flu hosp… cdf         9                         1
#> 10 US       2022-10-22      wk flu hosp… cdf         10                        1
#> # ℹ 199 more rows

# Example 2: Parquet format (directory) - reordered to hubverse convention
hub_path_parquet <- system.file("testhubs/v6/target_dir", package = "hubUtils")
oo_con_parquet <- connect_target_oracle_output(hub_path_parquet)

# Parquet columns follow hubverse convention (date first, then alphabetical)
names(oo_con_parquet)
#> [1] "target_end_date" "target"          "location"        "output_type"    
#> [5] "output_type_id"  "oracle_value"   

# Reordering is safe for Parquet because it matches columns by name
# rather than position during collection
oo_con_parquet |> dplyr::collect()
#> # A tibble: 627 × 6
#>    target_end_date target       location output_type output_type_id oracle_value
#>    <date>          <chr>        <chr>    <chr>       <chr>                 <dbl>
#>  1 2022-10-22      wk flu hosp… US       cdf         1                         1
#>  2 2022-10-22      wk flu hosp… US       cdf         2                         1
#>  3 2022-10-22      wk flu hosp… US       cdf         3                         1
#>  4 2022-10-22      wk flu hosp… US       cdf         4                         1
#>  5 2022-10-22      wk flu hosp… US       cdf         5                         1
#>  6 2022-10-22      wk flu hosp… US       cdf         6                         1
#>  7 2022-10-22      wk flu hosp… US       cdf         7                         1
#>  8 2022-10-22      wk flu hosp… US       cdf         8                         1
#>  9 2022-10-22      wk flu hosp… US       cdf         9                         1
#> 10 2022-10-22      wk flu hosp… US       cdf         10                        1
#> # ℹ 617 more rows

# Both formats support the same filtering operations
oo_con_parquet |>
  dplyr::filter(target_end_date ==  "2022-12-31") |>
  dplyr::collect()
#> # A tibble: 57 × 6
#>    target_end_date target       location output_type output_type_id oracle_value
#>    <date>          <chr>        <chr>    <chr>       <chr>                 <dbl>
#>  1 2022-12-31      wk flu hosp… US       cdf         1                         0
#>  2 2022-12-31      wk flu hosp… US       cdf         2                         0
#>  3 2022-12-31      wk flu hosp… US       cdf         3                         0
#>  4 2022-12-31      wk flu hosp… US       cdf         4                         0
#>  5 2022-12-31      wk flu hosp… US       cdf         5                         0
#>  6 2022-12-31      wk flu hosp… US       cdf         6                         1
#>  7 2022-12-31      wk flu hosp… US       cdf         7                         1
#>  8 2022-12-31      wk flu hosp… US       cdf         8                         1
#>  9 2022-12-31      wk flu hosp… US       cdf         9                         1
#> 10 2022-12-31      wk flu hosp… US       cdf         10                        1
#> # ℹ 47 more rows
…
